# name: debug
# type: sparse matrix
# nnz: 306
# rows: 30
# columns: 30

1 1 3
2 1 0
3 1 -2.61979106
4 1 -1
5 1 0
6 1 0
22 1 -1
23 1 0
24 1 0
28 1 -1
29 1 0
30 1 0
1 2 0
2 2 3
3 2 1.70641808
4 2 0
5 2 -1
6 2 0
22 2 0
23 2 -1
24 2 0
28 2 0
29 2 -1
30 2 0
1 3 -2.61979106
2 3 1.70641808
3 3 10.8654837
4 3 -0.474956597
5 3 -0.888353101
6 3 -1
22 3 2.13623809
23 3 -1.12801085
24 3 -1
28 3 0.958509574
29 3 0.309945864
30 3 -1
1 4 -1
2 4 0
3 4 -0.474956597
4 4 2
5 4 0
6 4 -1.67404841
16 4 -1
17 4 0
18 4 0
1 5 0
2 5 -1
3 5 -0.888353101
4 5 0
5 5 2
6 5 2.00080055
16 5 0
17 5 -1
18 5 0
1 6 0
2 6 0
3 6 -1
4 6 -1.67404841
5 6 2.00080055
6 6 8.80564091
16 6 1.67404841
17 6 -2.00080055
18 6 -1
7 7 3
8 7 0
9 7 -5.50316249
10 7 -1
11 7 0
12 7 0
16 7 -1
17 7 0
18 7 0
22 7 -1
23 7 0
24 7 0
7 8 0
8 8 3
9 8 1.50588737
10 8 0
11 8 -1
12 8 0
16 8 0
17 8 -1
18 8 0
22 8 0
23 8 -1
24 8 0
7 9 -5.50316249
8 9 1.50588737
9 9 19.7177368
10 9 0.294232634
11 9 -0.963016597
12 9 -1
16 9 2.13589179
17 9 -1.15200679
18 9 -1
22 9 3.07303807
23 9 0.609136019
24 9 -1
7 10 -1
8 10 0
9 10 0.294232634
10 10 2
11 10 0
12 10 -0.869149276
13 10 -1
14 10 0
15 10 0
7 11 0
8 11 -1
9 11 -0.963016597
10 11 0
11 11 2
12 11 0.486941158
13 11 0
14 11 -1
15 11 0
7 12 0
8 12 0
9 12 -1
10 12 -0.869149276
11 12 0.486941158
12 12 2.99253216
13 12 0.869149276
14 12 -0.486941158
15 12 -1
10 13 -1
11 13 0
12 13 0.869149276
13 13 2
14 13 0
15 13 -0.972509877
16 13 -1
17 13 0
18 13 0
10 14 0
11 14 -1
12 14 -0.486941158
13 14 0
14 14 2
15 14 -0.297950967
16 14 0
17 14 -1
18 14 0
10 15 0
11 15 0
12 15 -1
13 15 -0.972509877
14 15 -0.297950967
15 15 3.03455024
16 15 0.972509877
17 15 0.297950967
18 15 -1
4 16 -1
5 16 0
6 16 1.67404841
7 16 -1
8 16 0
9 16 2.13589179
13 16 -1
14 16 0
15 16 0.972509877
16 16 4
17 16 0
18 16 -0.474678768
19 16 -1
20 16 0
21 16 0
4 17 0
5 17 -1
6 17 -2.00080055
7 17 0
8 17 -1
9 17 -1.15200679
13 17 0
14 17 -1
15 17 0.297950967
16 17 0
17 17 4
18 17 -0.884831625
19 17 0
20 17 -1
21 17 0
4 18 0
5 18 0
6 18 -1
7 18 0
8 18 0
9 18 -1
13 18 0
14 18 0
15 18 -1
16 18 -0.474678768
17 18 -0.884831625
18 18 5.00824694
19 18 0.474678768
20 18 0.884831625
21 18 -1
16 19 -1
17 19 0
18 19 0.474678768
19 19 2
20 19 0
21 19 -0.46246751
22 19 -1
23 19 0
24 19 0
16 20 0
17 20 -1
18 20 0.884831625
19 20 0
20 20 2
21 20 -0.876311183
22 20 0
23 20 -1
24 20 0
16 21 0
17 21 0
18 21 -1
19 21 -0.46246751
20 21 -0.876311183
21 21 2.98179749
22 21 0.46246751
23 21 0.876311183
24 21 -1
1 22 -1
2 22 0
3 22 2.13623809
7 22 -1
8 22 0
9 22 3.07303807
19 22 -1
20 22 0
21 22 0.46246751
22 22 4
23 22 0
24 22 0.283896829
25 22 -1
26 22 0
27 22 0
1 23 0
2 23 -1
3 23 -1.12801085
7 23 0
8 23 -1
9 23 0.609136019
19 23 0
20 23 -1
21 23 0.876311183
22 23 0
23 23 4
24 23 -0.956011742
25 23 0
26 23 -1
27 23 0
1 24 0
2 24 0
3 24 -1
7 24 0
8 24 0
9 24 -1
19 24 0
20 24 0
21 24 -1
22 24 0.283896829
23 24 -0.956011742
24 24 4.99455586
25 24 -0.283896829
26 24 0.956011742
27 24 -1
22 25 -1
23 25 0
24 25 -0.283896829
25 25 1
26 25 0
27 25 0
22 26 0
23 26 -1
24 26 0.956011742
25 26 0
26 26 1
27 26 0
22 27 0
23 27 0
24 27 -1
25 27 0
26 27 0
27 27 1
1 28 -1
2 28 0
3 28 0.958509574
28 28 1
29 28 0
30 28 0
1 29 0
2 29 -1
3 29 0.309945864
28 29 0
29 29 1
30 29 0
1 30 0
2 30 0
3 30 -1
28 30 0
29 30 0
30 30 1
